…
territorios_con_perdidas <- territorio_rentabilidad %>%
  filter(perdida < 0) %>%
  arrange(perdida)

print("Territorios con pérdidas:")
```

    ## [1] "Territorios con pérdidas:"

``` r
print(territorios_con_perdidas)
```

    ## # A tibble: 79 × 6
    ##    Territorio Pais     total_unidades total_venta perdida precio_unitario
    ##    <chr>      <chr>             <dbl>       <dbl>   <dbl>           <dbl>
    ##  1 f7dfc635   4046ee34          73483     916786. -14985.           12.5 
    ##  2 77192d63   4046ee34          20702     247252   -5641.           11.9 
    ##  3 72520ba2   4f03bd9b          42957     356377.  -3761.            8.30
    ##  4 69c1b705   4046ee34          11988     152545.  -3370.           12.7 
    ##  5 1d407777   4046ee34          16005     204601.  -3300.           12.8 
    ##  6 bc8e06ed   4046ee34          21130     329853.  -3269.           15.6 
    ##  7 2e812869   4046ee34          10801     138780.  -3056.           12.8 
    ##  8 67e9cc18   4046ee34           9710     126771.  -2721.           13.1 
    ##  9 8f79b7f8   4f03bd9b          10822     114890.  -1858.           10.6 
    ## 10 a0d39798   4f03bd9b          50681     441722.  -1779.            8.72
    ## # ℹ 69 more rows
…
